^C:\USERS\ZACH WEGRZYNIAK\DOCUMENTS\VISUAL STUDIO 2013\PROJECTS\PROJECT1\PROJECT1\RELEASE\WEBSTATS.OBJ
C:\USERS\ZACH WEGRZYNIAK\DOCUMENTS\VISUAL STUDIO 2013\PROJECTS\PROJECT1\RELEASE\PROJECT1.EXE
C:\USERS\ZACH WEGRZYNIAK\DOCUMENTS\VISUAL STUDIO 2013\PROJECTS\PROJECT1\RELEASE\PROJECT1.PDB
